\relax 
\providecommand\hyper@newdestlabel[2]{}
\providecommand\zref@newlabel[2]{}
\providecommand*\new@tpo@label[2]{}
\catcode 95\active
\providecommand\HyperFirstAtBeginDocument{\AtBeginDocument}
\HyperFirstAtBeginDocument{\ifx\hyper@anchor\@undefined
\global\let\oldcontentsline\contentsline
\gdef\contentsline#1#2#3#4{\oldcontentsline{#1}{#2}{#3}}
\global\let\oldnewlabel\newlabel
\gdef\newlabel#1#2{\newlabelxx{#1}#2}
\gdef\newlabelxx#1#2#3#4#5#6{\oldnewlabel{#1}{{#2}{#3}}}
\AtEndDocument{\ifx\hyper@anchor\@undefined
\let\contentsline\oldcontentsline
\let\newlabel\oldnewlabel
\fi}
\fi}
\global\let\hyper@last\relax 
\gdef\HyperFirstAtBeginDocument#1{#1}
\providecommand\HyField@AuxAddToFields[1]{}
\providecommand\HyField@AuxAddToCoFields[2]{}
\providecommand \oddpage@label [2]{}
\babel@aux{english}{}
\@writefile{toc}{\contentsline {chapter}{\numberline {1}Question 1}{4}{chapter.1}}
\@writefile{lof}{\addvspace {10\p@ }}
\@writefile{lot}{\addvspace {10\p@ }}
\@writefile{lol}{\addvspace {10\p@ }}
\@writefile{loa}{\addvspace {10\p@ }}
\@writefile{toc}{\contentsline {section}{\numberline {1.1}Decision Tree Induction}{4}{section.1.1}}
\@writefile{toc}{\contentsline {subsection}{\numberline {1.1.1}Description}{4}{subsection.1.1.1}}
\@writefile{toc}{\contentsline {subsection}{\numberline {1.1.2}ID3 decision tree learning algorithm}{5}{subsection.1.1.2}}
\@writefile{toc}{\contentsline {subsection}{\numberline {1.1.3}Example}{6}{subsection.1.1.3}}
\@writefile{lot}{\contentsline {table}{\numberline {\relax 1.1}{\ignorespaces }}{6}{table.1.1}}
\newlabel{table:examples}{{\relax 1.1}{6}{}{table.1.1}{}}
\@writefile{lof}{\contentsline {figure}{\numberline {\relax 1.1}{\ignorespaces Decision tree learned by ID3}}{7}{figure.1.1}}
\newlabel{fig:dtree}{{\relax 1.1}{7}{Decision tree learned by ID3}{figure.1.1}{}}
\@writefile{toc}{\contentsline {section}{\numberline {1.2}Back Propagation Network}{8}{section.1.2}}
\@writefile{toc}{\contentsline {subsection}{\numberline {1.2.1}Algorithm}{8}{subsection.1.2.1}}
\@writefile{lof}{\contentsline {figure}{\numberline {\relax 1.2}{\ignorespaces  { A general multi-layer feed-forward neural network.}}}{8}{figure.1.2}}
\newlabel{fig:NN}{{\relax 1.2}{8}{ A general multi-layer feed-forward neural network}{figure.1.2}{}}
\@writefile{toc}{\contentsline {subsection}{\numberline {1.2.2}Example}{10}{subsection.1.2.2}}
\@writefile{lof}{\contentsline {figure}{\numberline {\relax 1.3}{\ignorespaces Neural Network with {\color  [rgb]{0.8,0,0}initial weights}, {\color  [rgb]{1, 0.4, 0}biases}, and training {\color  [rgb]{0,0,0.8}inputs/outputs}}}{11}{figure.1.3}}
\newlabel{fig:BPN}{{\relax 1.3}{11}{Neural Network with {\red initial weights}, {\yellow biases}, and training {\blue inputs/outputs}}{figure.1.3}{}}
\@writefile{lof}{\contentsline {figure}{\numberline {\relax 1.4}{\ignorespaces Back propagation for Output}}{12}{figure.1.4}}
\newlabel{fig:OutBP}{{\relax 1.4}{12}{Back propagation for Output}{figure.1.4}{}}
\@writefile{lof}{\contentsline {figure}{\numberline {\relax 1.5}{\ignorespaces Back propagation for Hidden Layer}}{14}{figure.1.5}}
\newlabel{fig:HiddenBP}{{\relax 1.5}{14}{Back propagation for Hidden Layer}{figure.1.5}{}}
\@writefile{toc}{\contentsline {section}{\numberline {1.3}Naive Bayesian Classifier}{15}{section.1.3}}
\@writefile{toc}{\contentsline {subsection}{\numberline {1.3.1}Description}{15}{subsection.1.3.1}}
\@writefile{toc}{\contentsline {subsection}{\numberline {1.3.2}Naive Bayes Algorithm}{16}{subsection.1.3.2}}
\@writefile{toc}{\contentsline {subsection}{\numberline {1.3.3}Example}{17}{subsection.1.3.3}}
\@writefile{toc}{\contentsline {section}{\numberline {1.4}Nearest Neighbor Classifier}{18}{section.1.4}}
\@writefile{toc}{\contentsline {subsection}{\numberline {1.4.1}Description}{18}{subsection.1.4.1}}
\@writefile{toc}{\contentsline {subsection}{\numberline {1.4.2}Algorithm}{18}{subsection.1.4.2}}
\@writefile{toc}{\contentsline {subsection}{\numberline {1.4.3}Example}{19}{subsection.1.4.3}}
\@writefile{toc}{\contentsline {chapter}{\numberline {2}Question 2}{20}{chapter.2}}
\@writefile{lof}{\addvspace {10\p@ }}
\@writefile{lot}{\addvspace {10\p@ }}
\@writefile{lol}{\addvspace {10\p@ }}
\@writefile{loa}{\addvspace {10\p@ }}
\@writefile{toc}{\contentsline {section}{\numberline {2.1}Simple Genetic Algorithm}{20}{section.2.1}}
\@writefile{toc}{\contentsline {chapter}{\numberline {3}Question 5}{21}{chapter.3}}
\@writefile{lof}{\addvspace {10\p@ }}
\@writefile{lot}{\addvspace {10\p@ }}
\@writefile{lol}{\addvspace {10\p@ }}
\@writefile{loa}{\addvspace {10\p@ }}
\@writefile{toc}{\contentsline {section}{\numberline {3.1}Definitions}{21}{section.3.1}}
\@writefile{toc}{\contentsline {section}{\numberline {3.2}Example}{22}{section.3.2}}
\@writefile{toc}{\contentsline {chapter}{\numberline {4}Question 6}{23}{chapter.4}}
\@writefile{lof}{\addvspace {10\p@ }}
\@writefile{lot}{\addvspace {10\p@ }}
\@writefile{lol}{\addvspace {10\p@ }}
\@writefile{loa}{\addvspace {10\p@ }}
\@writefile{toc}{\contentsline {section}{\numberline {4.1}K Means Clustering}{23}{section.4.1}}
\@writefile{toc}{\contentsline {subsection}{\numberline {4.1.1}Description}{23}{subsection.4.1.1}}
\@writefile{toc}{\contentsline {subsection}{\numberline {4.1.2}Algorithm}{23}{subsection.4.1.2}}
\@writefile{toc}{\contentsline {subsection}{\numberline {4.1.3}Example}{24}{subsection.4.1.3}}
\@writefile{toc}{\contentsline {section}{\numberline {4.2}K Medoids Clustering}{25}{section.4.2}}
\@writefile{toc}{\contentsline {subsection}{\numberline {4.2.1}Description}{25}{subsection.4.2.1}}
\@writefile{toc}{\contentsline {subsection}{\numberline {4.2.2}Algorithm}{25}{subsection.4.2.2}}
\@writefile{toc}{\contentsline {subsection}{\numberline {4.2.3}Example}{26}{subsection.4.2.3}}
\@writefile{toc}{\contentsline {section}{\numberline {4.3}Hierarchical Clustering}{27}{section.4.3}}
\@writefile{toc}{\contentsline {subsection}{\numberline {4.3.1}Description}{27}{subsection.4.3.1}}
\@writefile{toc}{\contentsline {subsection}{\numberline {4.3.2}Algorithm}{28}{subsection.4.3.2}}
\@writefile{toc}{\contentsline {subsection}{\numberline {4.3.3}Example}{28}{subsection.4.3.3}}
\@writefile{lot}{\contentsline {table}{\numberline {\relax 4.1}{\ignorespaces Devisive}}{28}{table.4.1}}
\@writefile{lot}{\contentsline {table}{\numberline {\relax 4.2}{\ignorespaces Agglomerative}}{28}{table.4.2}}
\@writefile{toc}{\contentsline {chapter}{\numberline {5}Question 7}{30}{chapter.5}}
\@writefile{lof}{\addvspace {10\p@ }}
\@writefile{lot}{\addvspace {10\p@ }}
\@writefile{lol}{\addvspace {10\p@ }}
\@writefile{loa}{\addvspace {10\p@ }}
\@writefile{toc}{\contentsline {section}{\numberline {5.1}Cosine}{30}{section.5.1}}
\@writefile{toc}{\contentsline {subsection}{\numberline {5.1.1}Example}{30}{subsection.5.1.1}}
\@writefile{toc}{\contentsline {section}{\numberline {5.2}Jaccard}{30}{section.5.2}}
\@writefile{toc}{\contentsline {subsection}{\numberline {5.2.1}Example}{30}{subsection.5.2.1}}
\@writefile{toc}{\contentsline {section}{\numberline {5.3}Minkowski}{31}{section.5.3}}
\@writefile{toc}{\contentsline {subsection}{\numberline {5.3.1}Example}{31}{subsection.5.3.1}}
\@writefile{toc}{\contentsline {section}{\numberline {5.4}Manhattan}{31}{section.5.4}}
\@writefile{toc}{\contentsline {subsection}{\numberline {5.4.1}Example}{32}{subsection.5.4.1}}
\@writefile{toc}{\contentsline {section}{\numberline {5.5}Mahalanobis}{32}{section.5.5}}
\@writefile{toc}{\contentsline {subsection}{\numberline {5.5.1}Example}{32}{subsection.5.5.1}}
\@writefile{toc}{\contentsline {chapter}{\numberline {6}Question 8}{34}{chapter.6}}
\@writefile{lof}{\addvspace {10\p@ }}
\@writefile{lot}{\addvspace {10\p@ }}
\@writefile{lol}{\addvspace {10\p@ }}
\@writefile{loa}{\addvspace {10\p@ }}
\global\@namedef{scr@dte@chapter@lastmaxnumwidth}{10.00822pt}
\global\@namedef{scr@dte@section@lastmaxnumwidth}{16.9724pt}
\global\@namedef{scr@dte@subsection@lastmaxnumwidth}{24.47313pt}
