\BOOKMARK [0][-]{chapter.1}{Question 1}{}% 1
\BOOKMARK [1][-]{section.1.1}{Decision Tree Induction}{chapter.1}% 2
\BOOKMARK [2][-]{subsection.1.1.1}{Description}{section.1.1}% 3
\BOOKMARK [2][-]{subsection.1.1.2}{ID3 decision tree learning algorithm}{section.1.1}% 4
\BOOKMARK [2][-]{subsection.1.1.3}{Example}{section.1.1}% 5
\BOOKMARK [1][-]{section.1.2}{Back Propagation Network}{chapter.1}% 6
\BOOKMARK [2][-]{subsection.1.2.1}{Algorithm}{section.1.2}% 7
\BOOKMARK [2][-]{subsection.1.2.2}{Example}{section.1.2}% 8
\BOOKMARK [1][-]{section.1.3}{Naive Bayesian Classifier}{chapter.1}% 9
\BOOKMARK [2][-]{subsection.1.3.1}{Description}{section.1.3}% 10
\BOOKMARK [2][-]{subsection.1.3.2}{Naive Bayes Algorithm}{section.1.3}% 11
\BOOKMARK [2][-]{subsection.1.3.3}{Example}{section.1.3}% 12
\BOOKMARK [1][-]{section.1.4}{Nearest Neighbor Classifier}{chapter.1}% 13
\BOOKMARK [2][-]{subsection.1.4.1}{Description}{section.1.4}% 14
\BOOKMARK [2][-]{subsection.1.4.2}{Algorithm}{section.1.4}% 15
\BOOKMARK [2][-]{subsection.1.4.3}{Example}{section.1.4}% 16
\BOOKMARK [0][-]{chapter.2}{Question 2}{}% 17
\BOOKMARK [1][-]{section.2.1}{Simple Genetic Algorithm}{chapter.2}% 18
\BOOKMARK [0][-]{chapter.3}{Question 5}{}% 19
\BOOKMARK [1][-]{section.3.1}{Definitions}{chapter.3}% 20
\BOOKMARK [1][-]{section.3.2}{Example}{chapter.3}% 21
\BOOKMARK [0][-]{chapter.4}{Question 6}{}% 22
\BOOKMARK [1][-]{section.4.1}{K Means Clustering}{chapter.4}% 23
\BOOKMARK [2][-]{subsection.4.1.1}{Description}{section.4.1}% 24
\BOOKMARK [2][-]{subsection.4.1.2}{Algorithm}{section.4.1}% 25
\BOOKMARK [2][-]{subsection.4.1.3}{Example}{section.4.1}% 26
\BOOKMARK [1][-]{section.4.2}{K Medoids Clustering}{chapter.4}% 27
\BOOKMARK [2][-]{subsection.4.2.1}{Description}{section.4.2}% 28
\BOOKMARK [2][-]{subsection.4.2.2}{Algorithm}{section.4.2}% 29
\BOOKMARK [2][-]{subsection.4.2.3}{Example}{section.4.2}% 30
\BOOKMARK [1][-]{section.4.3}{Hierarchical Clustering}{chapter.4}% 31
\BOOKMARK [2][-]{subsection.4.3.1}{Description}{section.4.3}% 32
\BOOKMARK [2][-]{subsection.4.3.2}{Algorithm}{section.4.3}% 33
\BOOKMARK [2][-]{subsection.4.3.3}{Example}{section.4.3}% 34
\BOOKMARK [0][-]{chapter.5}{Question 7}{}% 35
\BOOKMARK [1][-]{section.5.1}{Cosine}{chapter.5}% 36
\BOOKMARK [2][-]{subsection.5.1.1}{Example}{section.5.1}% 37
\BOOKMARK [1][-]{section.5.2}{Jaccard}{chapter.5}% 38
\BOOKMARK [2][-]{subsection.5.2.1}{Example}{section.5.2}% 39
\BOOKMARK [1][-]{section.5.3}{Minkowski}{chapter.5}% 40
\BOOKMARK [2][-]{subsection.5.3.1}{Example}{section.5.3}% 41
\BOOKMARK [1][-]{section.5.4}{Manhattan}{chapter.5}% 42
\BOOKMARK [2][-]{subsection.5.4.1}{Example}{section.5.4}% 43
\BOOKMARK [1][-]{section.5.5}{Mahalanobis}{chapter.5}% 44
\BOOKMARK [2][-]{subsection.5.5.1}{Example}{section.5.5}% 45
\BOOKMARK [0][-]{chapter.6}{Question 8}{}% 46
