\relax 
\providecommand\hyper@newdestlabel[2]{}
\providecommand\zref@newlabel[2]{}
\providecommand*\new@tpo@label[2]{}
\catcode 95\active
\providecommand\HyperFirstAtBeginDocument{\AtBeginDocument}
\HyperFirstAtBeginDocument{\ifx\hyper@anchor\@undefined
\global\let\oldcontentsline\contentsline
\gdef\contentsline#1#2#3#4{\oldcontentsline{#1}{#2}{#3}}
\global\let\oldnewlabel\newlabel
\gdef\newlabel#1#2{\newlabelxx{#1}#2}
\gdef\newlabelxx#1#2#3#4#5#6{\oldnewlabel{#1}{{#2}{#3}}}
\AtEndDocument{\ifx\hyper@anchor\@undefined
\let\contentsline\oldcontentsline
\let\newlabel\oldnewlabel
\fi}
\fi}
\global\let\hyper@last\relax 
\gdef\HyperFirstAtBeginDocument#1{#1}
\providecommand\HyField@AuxAddToFields[1]{}
\providecommand\HyField@AuxAddToCoFields[2]{}
\providecommand \oddpage@label [2]{}
\babel@aux{english}{}
\@writefile{toc}{\contentsline {chapter}{\numberline {1}Question 1}{4}{chapter.1}}
\@writefile{lof}{\addvspace {10\p@ }}
\@writefile{lot}{\addvspace {10\p@ }}
\@writefile{lol}{\addvspace {10\p@ }}
\@writefile{loa}{\addvspace {10\p@ }}
\@writefile{toc}{\contentsline {section}{\numberline {1.1}Hyperlink-Induced Topic Search}{4}{section.1.1}}
\@writefile{toc}{\contentsline {subsection}{\numberline {1.1.1}Description}{4}{subsection.1.1.1}}
\@writefile{toc}{\contentsline {subsection}{\numberline {1.1.2}PsuedoCode}{5}{subsection.1.1.2}}
\@writefile{toc}{\contentsline {subsection}{\numberline {1.1.3}Example}{6}{subsection.1.1.3}}
\@writefile{toc}{\contentsline {chapter}{\numberline {2}Question 2}{7}{chapter.2}}
\@writefile{lof}{\addvspace {10\p@ }}
\@writefile{lot}{\addvspace {10\p@ }}
\@writefile{lol}{\addvspace {10\p@ }}
\@writefile{loa}{\addvspace {10\p@ }}
\@writefile{toc}{\contentsline {section}{\numberline {2.1}BIRCH}{7}{section.2.1}}
\@writefile{toc}{\contentsline {subsection}{\numberline {2.1.1}Description}{7}{subsection.2.1.1}}
\@writefile{toc}{\contentsline {subsection}{\numberline {2.1.2}Algorithm}{8}{subsection.2.1.2}}
\@writefile{toc}{\contentsline {subsection}{\numberline {2.1.3}Example}{9}{subsection.2.1.3}}
\@writefile{toc}{\contentsline {section}{\numberline {2.2}DBSCAN}{10}{section.2.2}}
\@writefile{toc}{\contentsline {subsection}{\numberline {2.2.1}Description}{10}{subsection.2.2.1}}
\@writefile{toc}{\contentsline {subsection}{\numberline {2.2.2}Pseudocode}{11}{subsection.2.2.2}}
\@writefile{toc}{\contentsline {chapter}{\numberline {3}Question 3}{12}{chapter.3}}
\@writefile{lof}{\addvspace {10\p@ }}
\@writefile{lot}{\addvspace {10\p@ }}
\@writefile{lol}{\addvspace {10\p@ }}
\@writefile{loa}{\addvspace {10\p@ }}
\@writefile{toc}{\contentsline {section}{\numberline {3.1}Selection Methods}{12}{section.3.1}}
\@writefile{toc}{\contentsline {subsection}{\numberline {3.1.1}Roulette Wheel}{12}{subsection.3.1.1}}
\@writefile{toc}{\contentsline {subsection}{\numberline {3.1.2}Stochastic Universal Sampling (SUS)}{13}{subsection.3.1.2}}
\@writefile{toc}{\contentsline {subsection}{\numberline {3.1.3}Tournament Selection}{13}{subsection.3.1.3}}
\@writefile{toc}{\contentsline {subsection}{\numberline {3.1.4}Rank Selection}{14}{subsection.3.1.4}}
\@writefile{toc}{\contentsline {section}{\numberline {3.2}Crossover}{15}{section.3.2}}
\@writefile{toc}{\contentsline {subsection}{\numberline {3.2.1}Uniform Crossover}{15}{subsection.3.2.1}}
\@writefile{toc}{\contentsline {subsection}{\numberline {3.2.2}Discrete Crossover DC}{16}{subsection.3.2.2}}
\@writefile{toc}{\contentsline {subsection}{\numberline {3.2.3}Average Crossover AX}{16}{subsection.3.2.3}}
\@writefile{toc}{\contentsline {subsection}{\numberline {3.2.4}Random Respectful Crossover RRC}{16}{subsection.3.2.4}}
\@writefile{toc}{\contentsline {section}{\numberline {3.3}Mutation}{17}{section.3.3}}
\@writefile{toc}{\contentsline {subsection}{\numberline {3.3.1}TWORS Mutation}{17}{subsection.3.3.1}}
\@writefile{toc}{\contentsline {subsection}{\numberline {3.3.2}Centre inverse mutation (CIM)}{17}{subsection.3.3.2}}
\@writefile{toc}{\contentsline {subsection}{\numberline {3.3.3}Thoras Mutation}{17}{subsection.3.3.3}}
\@writefile{toc}{\contentsline {subsection}{\numberline {3.3.4}Thrors Mutation}{18}{subsection.3.3.4}}
\@writefile{toc}{\contentsline {chapter}{\numberline {4}Question 4}{19}{chapter.4}}
\@writefile{lof}{\addvspace {10\p@ }}
\@writefile{lot}{\addvspace {10\p@ }}
\@writefile{lol}{\addvspace {10\p@ }}
\@writefile{loa}{\addvspace {10\p@ }}
\@writefile{toc}{\contentsline {section}{\numberline {4.1}Traveling salesman Problem Statement}{19}{section.4.1}}
\@writefile{toc}{\contentsline {section}{\numberline {4.2}Method to Solve Using GA}{19}{section.4.2}}
\@writefile{toc}{\contentsline {subsection}{\numberline {4.2.1}Step 1: Create Random Population}{19}{subsection.4.2.1}}
\@writefile{toc}{\contentsline {subsection}{\numberline {4.2.2}Step 2: Fitness Evaluation}{20}{subsection.4.2.2}}
\@writefile{toc}{\contentsline {subsection}{\numberline {4.2.3}Step 3: Selection for Crossover}{20}{subsection.4.2.3}}
\@writefile{toc}{\contentsline {subsection}{\numberline {4.2.4}Step 4: Crossover}{20}{subsection.4.2.4}}
\@writefile{toc}{\contentsline {subsection}{\numberline {4.2.5}Step 5: Mutation}{21}{subsection.4.2.5}}
\@writefile{toc}{\contentsline {chapter}{\numberline {5}Question 5}{22}{chapter.5}}
\@writefile{lof}{\addvspace {10\p@ }}
\@writefile{lot}{\addvspace {10\p@ }}
\@writefile{lol}{\addvspace {10\p@ }}
\@writefile{loa}{\addvspace {10\p@ }}
\@writefile{toc}{\contentsline {section}{\numberline {5.1}SLIQ}{22}{section.5.1}}
\@writefile{toc}{\contentsline {subsection}{\numberline {5.1.1}Algorithm}{22}{subsection.5.1.1}}
\@writefile{toc}{\contentsline {subsection}{\numberline {5.1.2}Algo with examples}{23}{subsection.5.1.2}}
\@writefile{toc}{\contentsline {section}{\numberline {5.2}ARBC}{25}{section.5.2}}
\@writefile{toc}{\contentsline {subsection}{\numberline {5.2.1}Algo}{26}{subsection.5.2.1}}
\@writefile{toc}{\contentsline {subsection}{\numberline {5.2.2}Example}{27}{subsection.5.2.2}}
\@writefile{toc}{\contentsline {chapter}{\numberline {6}Question 6}{28}{chapter.6}}
\@writefile{lof}{\addvspace {10\p@ }}
\@writefile{lot}{\addvspace {10\p@ }}
\@writefile{lol}{\addvspace {10\p@ }}
\@writefile{loa}{\addvspace {10\p@ }}
\@writefile{toc}{\contentsline {section}{\numberline {6.1}Sequence Pattern Mining}{28}{section.6.1}}
\@writefile{toc}{\contentsline {section}{\numberline {6.2}GSP}{28}{section.6.2}}
\@writefile{toc}{\contentsline {subsection}{\numberline {6.2.1}Description}{28}{subsection.6.2.1}}
\@writefile{toc}{\contentsline {subsection}{\numberline {6.2.2}Algorithm}{29}{subsection.6.2.2}}
\@writefile{toc}{\contentsline {subsection}{\numberline {6.2.3}Example}{29}{subsection.6.2.3}}
\@writefile{toc}{\contentsline {section}{\numberline {6.3}Prefix-Span Algorithm}{30}{section.6.3}}
\@writefile{toc}{\contentsline {subsection}{\numberline {6.3.1}Example}{31}{subsection.6.3.1}}
\@writefile{toc}{\contentsline {chapter}{\numberline {7}Question 7}{33}{chapter.7}}
\@writefile{lof}{\addvspace {10\p@ }}
\@writefile{lot}{\addvspace {10\p@ }}
\@writefile{lol}{\addvspace {10\p@ }}
\@writefile{loa}{\addvspace {10\p@ }}
\@writefile{toc}{\contentsline {section}{\numberline {7.1}Description}{33}{section.7.1}}
\@writefile{toc}{\contentsline {subsection}{\numberline {7.1.1}Example}{33}{subsection.7.1.1}}
\@writefile{toc}{\contentsline {chapter}{\numberline {8}Question 8}{35}{chapter.8}}
\@writefile{lof}{\addvspace {10\p@ }}
\@writefile{lot}{\addvspace {10\p@ }}
\@writefile{lol}{\addvspace {10\p@ }}
\@writefile{loa}{\addvspace {10\p@ }}
\@writefile{toc}{\contentsline {section}{\numberline {8.1}Linear Regression}{35}{section.8.1}}
\@writefile{toc}{\contentsline {subsection}{\numberline {8.1.1}Algorithm}{35}{subsection.8.1.1}}
\@writefile{toc}{\contentsline {subsection}{\numberline {8.1.2}Example}{36}{subsection.8.1.2}}
\@writefile{toc}{\contentsline {section}{\numberline {8.2}Nonlinear Regression}{38}{section.8.2}}
\@writefile{toc}{\contentsline {subsection}{\numberline {8.2.1}Example}{38}{subsection.8.2.1}}
\@writefile{lot}{\contentsline {table}{\numberline {\relax 8.1}{\ignorespaces The global annual mean temperature deviation measured in $ C$ for years 1991-2000}}{38}{table.8.1}}
\global\@namedef{scr@dte@chapter@lastmaxnumwidth}{10.00822pt}
\global\@namedef{scr@dte@section@lastmaxnumwidth}{16.9724pt}
\global\@namedef{scr@dte@subsection@lastmaxnumwidth}{24.47313pt}
